{
    "title": "alert banner",
    "alertBannerItem":[
      {
        "alertBannerContent":"Alert Banner Message.<a href=\"#\">Click to Learn More</a>"
      },
      {
        "alertBannerContent":"<p>Another Alert Banner Message.<a href=\"#\">Click to Learn More</a></p>"
      },
      {
        "alertBannerContent":"<p>Another Alert Banner Message.</p><a href=\"#\">Click to Learn More</a>"
      },
      {
        "alertBannerContent":"<a href=\"#\">Click to Learn More</a>"
      }
    ]
 
}