{
  "title": "navbar",
  "imgSrcDesktop": "./Content/images/HR_Unity_ID_Round2_vGALE.png",
  "imgSrcMobile": "./Content/images/HR_Unity_ID_Round2_vGALE.png",
  "navLeft": [
    {
      "url": "./dash-board.html",
      "title": "Dashboard"
    },
    {
      "url": "./profile.html",
      "title": "Profile"
    }
  ],
  "navRight": [
    {
      "url": "./benefits.html",
      "title": "Benefits"
    },
    {
      "url": "#",
      "title": "Logout"
    }
  ],
  "subNavMobile": [
    {
      "url": "#",
      "title": "Link from footer 1"
    },
    {
      "url": "#",
      "title": "Link from footer 2"
    }
  ]
}