<?xml version="1.0" encoding="utf-8"?>
<!-- Generator: Adobe Illustrator 25.1.0, SVG Export Plug-In . SVG Version: 6.00 Build 0)  -->
<svg version="1.1" id="icon_Filter" xmlns="http://www.w3.org/2000/svg" xmlns:xlink="http://www.w3.org/1999/xlink" x="0px"
	 y="0px" viewBox="0 0 32.7 25" style="enable-background:new 0 0 32.7 25;" xml:space="preserve">
<style type="text/css">
	.st0{fill:#101820;}
</style>
<g>
	<path class="st0" d="M7.2,3.6V0H3.8v3.6C1.6,4.3,0,6.4,0,8.9s1.6,4.6,3.8,5.3V25h3.4V14.2c2.2-0.7,3.9-2.8,3.9-5.3
		C11.1,6.4,9.5,4.3,7.2,3.6z M5.6,13.1C5.6,13.1,5.6,13.1,5.6,13.1c-2.3,0-4.1-1.8-4.1-4.1c0-2.3,1.8-4.1,4.1-4.1
		c2.3,0,4.1,1.8,4.1,4.1C9.7,11.2,7.8,13.1,5.6,13.1z"/>
	<path class="st0" d="M18,13.2V0h-3.4v13.2c-2.2,0.7-3.8,2.8-3.9,5.3c0,2.5,1.6,4.6,3.9,5.3V25H18v-1.2c2.2-0.7,3.9-2.8,3.9-5.3
		C21.9,16,20.3,13.9,18,13.2z M16.4,22.7C16.4,22.7,16.3,22.7,16.4,22.7c-2.3,0-4.1-1.8-4.1-4.1c0-2.3,1.8-4.1,4.1-4.1
		c2.3,0,4.1,1.8,4.1,4.1C20.5,20.8,18.6,22.7,16.4,22.7z"/>
	<path class="st0" d="M28.8,6V0h-3.4v6c-2.2,0.7-3.9,2.8-3.9,5.3c0,2.5,1.6,4.6,3.9,5.3V25h3.4v-8.4c2.2-0.7,3.9-2.8,3.9-5.3
		C32.7,8.8,31.1,6.7,28.8,6z M27.2,15.4C27.2,15.4,27.2,15.4,27.2,15.4c-2.3,0-4.1-1.8-4.1-4.1c0-2.3,1.8-4.1,4.1-4.1
		c2.3,0,4.1,1.8,4.1,4.1C31.3,13.6,29.4,15.4,27.2,15.4z"/>
</g>
</svg>
