<?xml version="1.0" encoding="utf-8"?>
<!-- Generator: Adobe Illustrator 25.1.0, SVG Export Plug-In . SVG Version: 6.00 Build 0)  -->
<svg version="1.1" id="Layer_1" xmlns="http://www.w3.org/2000/svg" xmlns:xlink="http://www.w3.org/1999/xlink" x="0px" y="0px"
	 viewBox="0 0 4.2 10.4" style="enable-background:new 0 0 4.2 10.4;" xml:space="preserve">
<style type="text/css">
	.st0{fill-rule:evenodd;clip-rule:evenodd;}
</style>
<g>
	<polygon class="st0" points="3.1,8.4 3.1,5.2 3.1,3.1 0,3.1 0,5.2 1,5.2 1,8.4 0,8.4 0,10.5 4.2,10.5 4.2,8.4 	"/>
	<rect x="1" y="0" class="st0" width="2.1" height="2.1"/>
</g>
</svg>
